<svg width="1920" height="290" viewBox="0 0 1920 290" fill="none" xmlns="http://www.w3.org/2000/svg">
<path d="M1920 289.04H0V274.04C20.3088 273.595 31.6994 273.944 52.0271 276.041C94.0417 281.764 116.675 284.73 150.078 285.04C210.358 282.22 246.528 273.591 313.663 245.54C387.206 218.408 428.27 205.676 501.761 188.04C563.37 172.571 598.71 168.73 662.845 168.54C730.44 173.653 776.02 180.417 880.959 204.541C926.683 215.294 953.176 220.613 1000.52 226.54C1067.75 230.291 1101.85 229.456 1153.6 220.54C1224.03 208.135 1287.79 182.36 1432.25 112.541C1538.76 64.1135 1599.65 40.8938 1693.38 20.5405C1768.92 5.20851 1820.59 -0.544269 1920 0.0401031V289.04Z" fill="#EDEDED"/>
</svg>
