<svg width="921" height="494" viewBox="0 0 921 494" fill="none" xmlns="http://www.w3.org/2000/svg">
<path d="M915.291 0.320007H5.51318C2.75176 0.320007 0.513184 2.55858 0.513184 5.32001V488.134C0.513184 490.895 2.75176 493.134 5.51318 493.134H915.291C918.053 493.134 920.291 490.895 920.291 488.134V5.32001C920.291 2.55858 918.053 0.320007 915.291 0.320007Z" fill="#F1F1F4"/>
<path opacity="0.5" d="M663.287 23.426H264.441V56.749H663.287V23.426Z" fill="#D5D5D5"/>
<path opacity="0.5" d="M699.899 77.708H229.18V284.993H699.899V77.708Z" fill="#D5D5D5"/>
<path opacity="0.5" d="M699.842 322.313H229.509V334.313H699.842V322.313Z" fill="#D5D5D5"/>
<path opacity="0.5" d="M698.842 298.313H228.509V310.313H698.842V298.313Z" fill="#D5D5D5"/>
<path opacity="0.5" d="M699.842 346.313H229.509V358.313H699.842V346.313Z" fill="#D5D5D5"/>
<path opacity="0.5" d="M699.842 370.313H229.509V382.313H699.842V370.313Z" fill="#D5D5D5"/>
<path opacity="0.5" d="M699.842 394.313H229.509V406.313H699.842V394.313Z" fill="#D5D5D5"/>
<path opacity="0.5" d="M699.842 418.313H229.509V430.313H699.842V418.313Z" fill="#D5D5D5"/>
<path opacity="0.5" d="M488.842 442.313H229.509V454.313H488.842V442.313Z" fill="#D5D5D5"/>
</svg>
