<svg width="394" height="493" viewBox="0 0 394 493" fill="none" xmlns="http://www.w3.org/2000/svg">
<path d="M368.969 0.78299H25.12C11.3129 0.78299 0.119995 11.9759 0.119995 25.783V467.39C0.119995 481.197 11.3129 492.39 25.12 492.39H368.969C382.776 492.39 393.969 481.197 393.969 467.39V25.783C393.969 11.9759 382.776 0.78299 368.969 0.78299Z" fill="#F1F1F4"/>
<path opacity="0.5" d="M309.83 18.376H91.325V43.119H309.83V18.376Z" fill="#D5D5D5"/>
<path opacity="0.5" d="M362.562 259.291H43.229V271.291H362.562V259.291Z" fill="#D5D5D5"/>
<path opacity="0.5" d="M362.562 353.291H43.229V365.291H362.562V353.291Z" fill="#D5D5D5"/>
<path opacity="0.5" d="M362.562 283.186H43.229V295.186H362.562V283.186Z" fill="#D5D5D5"/>
<path opacity="0.5" d="M362.562 377.186H43.229V389.186H362.562V377.186Z" fill="#D5D5D5"/>
<path opacity="0.5" d="M362.562 307.082H43.229V319.082H362.562V307.082Z" fill="#D5D5D5"/>
<path opacity="0.5" d="M362.562 401.082H43.229V413.082H362.562V401.082Z" fill="#D5D5D5"/>
<path opacity="0.5" d="M362.562 330.977H43.229V342.977H362.562V330.977Z" fill="#D5D5D5"/>
<path opacity="0.5" d="M362.562 424.977H43.229V436.977H362.562V424.977Z" fill="#D5D5D5"/>
<path opacity="0.5" d="M108.087 448.872H43.229V460.872H108.087V448.872Z" fill="#D5D5D5"/>
<path opacity="0.5" d="M392.659 61.393H0.325012V241.193H392.659V61.393Z" fill="#D5D5D5"/>
</svg>
